<svg xmlns="http://www.w3.org/2000/svg" width="295" height="234" viewBox="0 0 295 234">
  <g id="Grupo_2" data-name="Grupo 2" transform="translate(-147 -240)">
    <rect id="Rectángulo_4" data-name="Rectángulo 4" width="51" height="51" transform="translate(147 240)" fill="#bada55"/>
    <rect id="Rectángulo_4-2" data-name="Rectángulo 4" width="51" height="51" transform="translate(147 301)" fill="#fff"/>
    <rect id="Rectángulo_4-3" data-name="Rectángulo 4" width="51" height="51" transform="translate(208 301)" fill="#bada55"/>
    <rect id="Rectángulo_4-4" data-name="Rectángulo 4" width="51" height="51" transform="translate(208 362)" fill="#fff"/>
    <rect id="Rectángulo_4-5" data-name="Rectángulo 4" width="51" height="51" transform="translate(208 423)" fill="#fff"/>
    <rect id="Rectángulo_4-6" data-name="Rectángulo 4" width="51" height="51" transform="translate(269 423)" fill="#fff"/>
    <rect id="Rectángulo_5" data-name="Rectángulo 5" width="51" height="51" transform="translate(269 362)" fill="#bada55"/>
    <rect id="Rectángulo_10" data-name="Rectángulo 10" width="51" height="51" transform="translate(391 240)" fill="#bada55"/>
    <rect id="Rectángulo_9" data-name="Rectángulo 9" width="51" height="51" transform="translate(391 301)" fill="#fff"/>
    <rect id="Rectángulo_8" data-name="Rectángulo 8" width="51" height="51" transform="translate(391 362)" fill="#fff"/>
    <rect id="Rectángulo_7" data-name="Rectángulo 7" width="51" height="51" transform="translate(330 306)" fill="#bada55"/>
    <rect id="Rectángulo_6" data-name="Rectángulo 6" width="51" height="51" transform="translate(330 362)" fill="#fff"/>
    <rect id="Rectángulo_4-7" data-name="Rectángulo 4" width="51" height="51" transform="translate(330 423)" fill="#fff"/>
    <rect id="Rectángulo_4-8" data-name="Rectángulo 4" width="51" height="51" transform="translate(391 423)" fill="#fff"/>
    <rect id="Rectángulo_4-9" data-name="Rectángulo 4" width="51" height="51" transform="translate(147 362)" fill="#fff"/>
    <rect id="Rectángulo_4-10" data-name="Rectángulo 4" width="51" height="51" transform="translate(147 423)" fill="#fff"/>
  </g>
</svg>
